UPF46IUXT4I4EUHYY,7838589853777030,2466277246282742,Panasonic Eluga
SBNNW95VAY7WDH7AO,9540727738598907,2175398518847041,Panasonic Eluga
BI93ADO8TZMCR3IA7,8403176719183169,3953357232759839,Moto C
IRY8F8DQJ5ALSXRLI,3704254990674251,4418155519634641,Samsung J4
QRQHI2HCH7CKZOP9K,7587547658786905,9801999721578676,Moto C
5S92R32J4L314WBBL,7809770223488013,3927173013867277,Panasonic Eluga
7ZJATQZCLZ4IR9WHY,8376379037049355,1557307563760178,Panasonic Eluga
QAI7036HUHHBGTGYY,7384641283299977,7083103160305910,Panasonic Eluga
FHSY5U89449J95SP0,9551881573496123,7892946804498244,Panasonic Eluga
O7SAS4S4VIXOV9ST7,3883712203485790,4493155865246289,Panasonic Eluga
QP236S400BHHT118L,2760423966894819,6271923606653411,Samsung J4
M079O5B1GVJALQ8D1,7824464994466650,1304229009301625,Samsung J4
O26MM15Q8LYD0TD77,4544350926248461,8998026786878601,Moto C
D77ZJ02VO3HAZMOV4,3633844253448770,4690280222336585,Samsung J4
JHJCEZD3F0O69WBBK,9849088944491982,4389442029440772,Moto C
WFL1OLV93W1VNE6IG,1859403061334699,4411366783330864,Moto C
69X7B0XH9L36WR5CT,5571307799538441,7693399364711031,Panasonic Eluga
BVZQVGQM2KQN8DRZ5,7871673319717716,5885811920805525,Samsung J4
TOR35WPPB3RKZBKOW,2617459291598262,4421151045391911,Moto C
QBB5DI5A1VOSG5LBW,7874703184575717,8927389908147114,Moto C
N703N4H9AQCEM2SZH,6459199338157740,3493124001992088,Panasonic Eluga
YU24G1XZ9T0WXG2FI,3004656075652666,5641502400179768,Samsung J4
B3Z5I2ICNMHPC847Q,9126571041483168,4836287409181374,Moto C
GRMO90T0KYH5HT8WG,3150058380701071,1590378615868966,Moto C
KHDJWRPHFP9ZPVVZO,7650556948740076,2907550505670301,Samsung J4
PMS1PO0GM3N5P2O06,7939092347904293,5386350764796000,Moto C
GFOAX3IHF2HDVPG0M,2969704196283841,8184168504249611,Panasonic Eluga
PTZHYZLN2FQHOHBJW,6524363666770883,9905950796563173,Samsung J4
D205A8TECWM89SICY,5745590653345838,2274818766220533,Samsung J4
MAOIWASE3ZLT652HJ,4101648238439412,1889076226261243,Panasonic Eluga
VL0SU969TA203RCUE,4911182191229478,3898090994433783,Samsung J4
2MEEYLRDU2DW2QZ6I,4943122472801632,2201147969596760,Moto C
ETVKRQNRVKJV81T9J,6606218672327522,3059982308132026,Samsung J4
WACY4MFA4Z5LG3GVJ,1343725350077514,4377769879361816,Moto C
IA94Q5M5BVEDYACPY,4110381790289363,1550044781795334,Samsung J4
TLXW1AW1C2VD543WS,9538334165418500,2390265445060827,Moto C
EDGJ9QCGB0C63TLO9,1446997226526654,1876542789747582,Panasonic Eluga
YEN3QTV1KFJ42QS44,7907210870660386,7778581812219534,Panasonic Eluga
LX79VBPL9UOLA2VK6,1847004915455812,2533277428827232,Samsung J4
5FNBZWHJYHRW0TB81,4875050464528596,9870149488266165,Moto C
DSOR6E8XZ59USSMLR,1611114382423075,3115115593396961,Panasonic Eluga
09DE1HQP3798W5T0Q,9420945895859578,9213407154306372,Samsung J4
C3J8PYQMNLA9MGDSX,2975658061219927,2281537569695691,Panasonic Eluga
996OCRJTDZCJ5LRSA,3282388286405740,8126560820166435,Moto C
EC349SF4GUGMXBO11,9540739744350425,9072800372132110,Moto C
NRX2C95SFT0E4MRMF,1897718549273656,5522797569878794,Samsung J4
KMYYWM7AQKEP64D9F,8228084581776124,3415269597756784,Panasonic Eluga
E22CXE470L60SCKR7,6032203382510542,8007716656625988,Samsung J4
4X5SJNK8Y8WFNTLQN,6687582633911869,6613175982506448,Panasonic Eluga
N00E35QMO69JED599,1990871019931716,3890596750605187,Moto C
AFSNOS4EX7J6GJOPG,7398401648656252,1938621420279167,Samsung J4
9MWUTCO9P45UQ1PUL,3256809999884158,3595772697017684,Samsung J4
38KUAPVZZQN2GUZ70,9377724494883223,4479578956083121,Moto C
07PRFZ52ADP034J02,2338174846997310,9845909932811514,Samsung J4
YZQ2DIZNQW52SP4RT,7162631373299348,5272675976367510,Samsung J4
RR4250160BBIMC15W,6878626801622996,1401819330754857,Moto C
J84SPLKHH4RE1G892,6145237746101191,7182396472735798,Samsung J4
VJSU00TT8AGVFXWKU,6771039896855807,4877416787098383,Samsung J4
UCU3PMBR7KU8Y2PWT,6724719276933242,7114011343051499,Samsung J4
NAGZQVC2TI0AC6HXB,4132134446239563,4706837651692508,Panasonic Eluga
Y5IDEO6KSCE9J5ABQ,8439450938315662,1693193058403724,Samsung J4
U6P3OZ0R1QAEGMWGG,9268257342741342,9089491524902044,Panasonic Eluga
155JW6KMNJ55G0WWD,9821709315597750,1474926225352011,Samsung J4
YFNYQU8HD42FB61JD,2371140656668000,7478195477848310,Moto C
9OOTL3TGSMB9NRWF5,4339550006526142,8026652830053311,Moto C
9VZWELQJX9WDPMU3Y,7112430156059598,7291343916215947,Moto C
JI97L5XBMTHKMFSWS,1915245854579191,4523219113574005,Samsung J4
I0X6XU6C33FAN1MOA,5420314682058656,7079091467391723,Samsung J4
MJ98P04O1HDIC2NMN,9765062307610628,6701451661009608,Samsung J4
H8K4A9G8I2OW5VZTG,6370043348872239,7801263221215992,Panasonic Eluga
ERKI1RQTZV0Q6U1U6,1925516004146543,3126088953212341,Samsung J4
ITCGLZF4XVQV46Y19,3621608819536738,2373538925326935,Moto C
7HOUZUKZ32JHPW6SM,6656361098807611,4455740705014391,Panasonic Eluga
S44QL8HIXT2CY41RY,9536911478464830,6682091458099905,Moto C
TJA65DWNR4CF0510L,2352119938691479,5416017604639661,Panasonic Eluga
X78H0EP820CEC0A6F,5699087067708712,1344196297935322,Moto C
R8WSFKZCJCW7ZQA92,9200739854812790,9530237894519691,Moto C
IPQDYXFYJ22NT8MC5,1443854962498331,1397084287605257,Samsung J4
DU9F4TL6FEKLM27H3,2153606912979211,2884297903237192,Samsung J4
7GKI6LYXMRFPX25BY,1159741642140343,1711424215052739,Samsung J4
7AV6MC23OVO8HESDJ,5132865575905511,3093324561098854,Moto C
Z6ZQ0RRF21QPA541Q,3764986369935866,1864218181549526,Samsung J4
XI88VZE74CGB2THWY,9921364167321944,9239905403430783,Samsung J4
R5IC0WQ81X9M52B3Y,4732580055241727,4299416737629977,Samsung J4
MREHWQN8KYDAYKNZC,6706956565113882,8179808197769153,Samsung J4
DU3K0XE99APQLRXMC,6455510680935473,6532421040534279,Samsung J4
RRL7IQ4KUT5IQU705,2325350798093985,9557862498532682,Panasonic Eluga
NQ5L074B3KZ8CINVE,7313548497051032,1666687007351606,Panasonic Eluga
8G6Q6D27XPB8Z4B1A,4859356969260209,8551020655318797,Samsung J4
8SJ25MZRFXXTAEHVI,1021642376452473,3615086197529088,Samsung J4
6Y8COFMV68Z2GQ6WF,5431918149137365,1621293220893038,Moto C
T597KNIR8OW80RW7U,9855318873056171,4926034737717586,Samsung J4
LIMF6NIW54QQG4E1D,1420200287379111,1755991153407851,Panasonic Eluga
1SS0XWLISKJFAG3A8,4295601741654291,4647274183543731,Samsung J4
O50IJD2YDSZTUYFK9,3467232058420881,1052185885557077,Moto C
WZT2IV38MIKPE1AJS,5713418446598027,3050936714348583,Samsung J4
OEE3KCO17997HM7I1,5902424286420917,3545488543451596,Panasonic Eluga
FOQ3UKOHEM5MQNM8S,1249505713974741,1313619376022482,Samsung J4
YIYDSHDW2ZKUT0E8W,4276883886259658,1878473174043300,Samsung J4
3YUF5TLNCJ17GWGXD,3466682344029223,2830785829559868,Samsung J4
