86114043558490623015,7485935068,Airtel
29786422287129973531,7338442785,Airtel
80410555162381792855,2152379221,Airtel
85386206883267308373,7250286164,BSNL
79584872368847497412,6665297631,Vodafone
83485858649963598910,5852689084,Airtel
67868735993429879962,1412810427,BSNL
31850974875720457335,7435392110,Vodafone
37027751643113649885,2989836437,Jio
97087508470352614285,3922610542,Jio
63519427287495043218,6613838845,Airtel
35519203671091522900,2882858577,BSNL
12922782419615568566,1212714843,BSNL
15650113283104984731,8447423274,BSNL
72133296461597614186,2291723450,Jio
97217426424627238469,4315013740,Airtel
51986511416097427916,8731210600,Vodafone
85888023032776500964,3364198057,Jio
35579671792319567921,6751379773,Airtel
82661711624548557454,9116837199,Airtel
74553992816944229906,8786715632,BSNL
94676316007213673058,3675461690,BSNL
55770681182061321945,5533318506,Vodafone
57961273468568804079,2636331236,Airtel
34418504225765592139,1764648631,Airtel
29936631885725574543,6105821436,BSNL
69659708007145088343,8487071570,Airtel
25252887415498575100,3447773151,Jio
80092256995438738588,7852156758,Airtel
31737240152898262675,8781488880,BSNL
66211182373058277822,5005461403,Vodafone
65283758649357880792,6474193886,Airtel
16031290296647752350,6995541746,Jio
77473530088975046479,1218236591,Jio
20230653570208173723,4404191853,BSNL
15407862494557823019,7503122197,Airtel
84785787869917760954,2620140238,BSNL
14483234215886459064,4267611393,BSNL
73992781339618107046,3673219822,Vodafone
14958379319389787437,2885527999,Jio
84630834601505396585,2724880653,Jio
27313419754542485780,5209555135,Vodafone
24461611367801651075,9258839060,Jio
41374999378913547391,9631840398,Jio
98239873799289854306,7868497178,Vodafone
22057686082253848983,2342941202,Jio
45448786278248846044,8385158514,Jio
31473978572668099928,6930090942,BSNL
54867446058073692920,7597371170,Airtel
57287481977602355879,4137501169,Jio
88155486623614528803,7211805840,Vodafone
74320890090588615120,7062279385,Vodafone
17325121767210114005,5877244537,Vodafone
72429136056616981809,3059713011,Jio
41532556075787073863,9762270509,Airtel
72316044268426458922,8705296775,Vodafone
14525990848960877688,3483300319,BSNL
30178324655358526931,1637591439,BSNL
85127723418768321436,7008188395,Jio
48448868082325397357,2975839785,BSNL
28459562615773646069,7905319528,Airtel
45446807680372217167,5817250348,Airtel
69234406133835903651,8603855947,Airtel
33383581370215373881,4178061612,Jio
43992136398200696808,2542743475,Vodafone
51997529983298524916,5472678135,Vodafone
50620988140299570384,4214762055,Vodafone
15477946032453917727,9548905519,BSNL
49268439163084352602,6151171690,Airtel
13800590940200268990,5224909852,BSNL
39974958333315029972,6594587306,Jio
50603613062327038161,2735350814,Airtel
66211357134045167108,6473642242,BSNL
87443811942655973239,2793336894,BSNL
93430632633549675892,3194140052,BSNL
39116697521349011264,1454558166,Vodafone
89070499423817577801,5588541913,BSNL
68871577549655466834,4762051398,Airtel
78539520719617524300,5457846396,Airtel
25868044629815586246,7695562274,Vodafone
56369559686569981460,5071669907,Vodafone
50881978842422354315,2150374729,BSNL
66314833802787762151,4526099303,BSNL
10762853215226807954,3224207914,Vodafone
84215078613607625599,4998548782,Airtel
92180324374073113187,3829609510,Airtel
25186884442946835564,9364021346,Jio
90605963909037237193,9237843821,Jio
70000713765173050799,1503146730,Vodafone
73994795407041569420,9849781030,Airtel
65562773841053667122,8504180815,Jio
82916242669909943817,8429870695,Jio
37081057791222481271,1522436785,Airtel
19287757926301993889,8882964911,Airtel
81248357807342368051,6841910676,Vodafone
43319768992086811970,9257494203,Vodafone
67504564513041357621,1073430341,BSNL
82511086605249766408,7939129663,Vodafone
49634104841643871233,3345731327,Vodafone
65338989398378357589,2579752642,Jio
