('D:\\device-records-management-main\\build\\main\\PYZ-00.pyz',
 [('os', 'C:\\Users\\adhav\\anaconda3\\lib\\os.py', 'PYMODULE'),
  ('subprocess', 'C:\\Users\\adhav\\anaconda3\\lib\\subprocess.py', 'PYMODULE'),
  ('selectors', 'C:\\Users\\adhav\\anaconda3\\lib\\selectors.py', 'PYMODULE'),
  ('contextlib', 'C:\\Users\\adhav\\anaconda3\\lib\\contextlib.py', 'PYMODULE'),
  ('threading', 'C:\\Users\\adhav\\anaconda3\\lib\\threading.py', 'PYMODULE'),
  ('_threading_local',
   'C:\\Users\\adhav\\anaconda3\\lib\\_threading_local.py',
   'PYMODULE'),
  ('signal', 'C:\\Users\\adhav\\anaconda3\\lib\\signal.py', 'PYMODULE'),
  ('_strptime', 'C:\\Users\\adhav\\anaconda3\\lib\\_strptime.py', 'PYMODULE'),
  ('calendar', 'C:\\Users\\adhav\\anaconda3\\lib\\calendar.py', 'PYMODULE'),
  ('argparse', 'C:\\Users\\adhav\\anaconda3\\lib\\argparse.py', 'PYMODULE'),
  ('textwrap', 'C:\\Users\\adhav\\anaconda3\\lib\\textwrap.py', 'PYMODULE'),
  ('shutil', 'C:\\Users\\adhav\\anaconda3\\lib\\shutil.py', 'PYMODULE'),
  ('zipfile', 'C:\\Users\\adhav\\anaconda3\\lib\\zipfile.py', 'PYMODULE'),
  ('py_compile', 'C:\\Users\\adhav\\anaconda3\\lib\\py_compile.py', 'PYMODULE'),
  ('importlib.machinery',
   'C:\\Users\\adhav\\anaconda3\\lib\\importlib\\machinery.py',
   'PYMODULE'),
  ('importlib',
   'C:\\Users\\adhav\\anaconda3\\lib\\importlib\\__init__.py',
   'PYMODULE'),
  ('importlib._bootstrap',
   'C:\\Users\\adhav\\anaconda3\\lib\\importlib\\_bootstrap.py',
   'PYMODULE'),
  ('importlib._bootstrap_external',
   'C:\\Users\\adhav\\anaconda3\\lib\\importlib\\_bootstrap_external.py',
   'PYMODULE'),
  ('importlib.metadata',
   'C:\\Users\\adhav\\anaconda3\\lib\\importlib\\metadata.py',
   'PYMODULE'),
  ('importlib.abc',
   'C:\\Users\\adhav\\anaconda3\\lib\\importlib\\abc.py',
   'PYMODULE'),
  ('typing', 'C:\\Users\\adhav\\anaconda3\\lib\\typing.py', 'PYMODULE'),
  ('configparser',
   'C:\\Users\\adhav\\anaconda3\\lib\\configparser.py',
   'PYMODULE'),
  ('pathlib', 'C:\\Users\\adhav\\anaconda3\\lib\\pathlib.py', 'PYMODULE'),
  ('urllib.parse',
   'C:\\Users\\adhav\\anaconda3\\lib\\urllib\\parse.py',
   'PYMODULE'),
  ('urllib',
   'C:\\Users\\adhav\\anaconda3\\lib\\urllib\\__init__.py',
   'PYMODULE'),
  ('email', 'C:\\Users\\adhav\\anaconda3\\lib\\email\\__init__.py', 'PYMODULE'),
  ('email.parser',
   'C:\\Users\\adhav\\anaconda3\\lib\\email\\parser.py',
   'PYMODULE'),
  ('email._policybase',
   'C:\\Users\\adhav\\anaconda3\\lib\\email\\_policybase.py',
   'PYMODULE'),
  ('email.utils',
   'C:\\Users\\adhav\\anaconda3\\lib\\email\\utils.py',
   'PYMODULE'),
  ('email._parseaddr',
   'C:\\Users\\adhav\\anaconda3\\lib\\email\\_parseaddr.py',
   'PYMODULE'),
  ('socket', 'C:\\Users\\adhav\\anaconda3\\lib\\socket.py', 'PYMODULE'),
  ('random', 'C:\\Users\\adhav\\anaconda3\\lib\\random.py', 'PYMODULE'),
  ('statistics', 'C:\\Users\\adhav\\anaconda3\\lib\\statistics.py', 'PYMODULE'),
  ('decimal', 'C:\\Users\\adhav\\anaconda3\\lib\\decimal.py', 'PYMODULE'),
  ('_pydecimal', 'C:\\Users\\adhav\\anaconda3\\lib\\_pydecimal.py', 'PYMODULE'),
  ('contextvars',
   'C:\\Users\\adhav\\anaconda3\\lib\\contextvars.py',
   'PYMODULE'),
  ('fractions', 'C:\\Users\\adhav\\anaconda3\\lib\\fractions.py', 'PYMODULE'),
  ('numbers', 'C:\\Users\\adhav\\anaconda3\\lib\\numbers.py', 'PYMODULE'),
  ('hashlib', 'C:\\Users\\adhav\\anaconda3\\lib\\hashlib.py', 'PYMODULE'),
  ('logging',
   'C:\\Users\\adhav\\anaconda3\\lib\\logging\\__init__.py',
   'PYMODULE'),
  ('pickle', 'C:\\Users\\adhav\\anaconda3\\lib\\pickle.py', 'PYMODULE'),
  ('pprint', 'C:\\Users\\adhav\\anaconda3\\lib\\pprint.py', 'PYMODULE'),
  ('_compat_pickle',
   'C:\\Users\\adhav\\anaconda3\\lib\\_compat_pickle.py',
   'PYMODULE'),
  ('string', 'C:\\Users\\adhav\\anaconda3\\lib\\string.py', 'PYMODULE'),
  ('bisect', 'C:\\Users\\adhav\\anaconda3\\lib\\bisect.py', 'PYMODULE'),
  ('email.feedparser',
   'C:\\Users\\adhav\\anaconda3\\lib\\email\\feedparser.py',
   'PYMODULE'),
  ('email.message',
   'C:\\Users\\adhav\\anaconda3\\lib\\email\\message.py',
   'PYMODULE'),
  ('email.policy',
   'C:\\Users\\adhav\\anaconda3\\lib\\email\\policy.py',
   'PYMODULE'),
  ('email.contentmanager',
   'C:\\Users\\adhav\\anaconda3\\lib\\email\\contentmanager.py',
   'PYMODULE'),
  ('email.quoprimime',
   'C:\\Users\\adhav\\anaconda3\\lib\\email\\quoprimime.py',
   'PYMODULE'),
  ('email.headerregistry',
   'C:\\Users\\adhav\\anaconda3\\lib\\email\\headerregistry.py',
   'PYMODULE'),
  ('email.iterators',
   'C:\\Users\\adhav\\anaconda3\\lib\\email\\iterators.py',
   'PYMODULE'),
  ('email.generator',
   'C:\\Users\\adhav\\anaconda3\\lib\\email\\generator.py',
   'PYMODULE'),
  ('email._encoded_words',
   'C:\\Users\\adhav\\anaconda3\\lib\\email\\_encoded_words.py',
   'PYMODULE'),
  ('base64', 'C:\\Users\\adhav\\anaconda3\\lib\\base64.py', 'PYMODULE'),
  ('getopt', 'C:\\Users\\adhav\\anaconda3\\lib\\getopt.py', 'PYMODULE'),
  ('quopri', 'C:\\Users\\adhav\\anaconda3\\lib\\quopri.py', 'PYMODULE'),
  ('uu', 'C:\\Users\\adhav\\anaconda3\\lib\\uu.py', 'PYMODULE'),
  ('optparse', 'C:\\Users\\adhav\\anaconda3\\lib\\optparse.py', 'PYMODULE'),
  ('email._header_value_parser',
   'C:\\Users\\adhav\\anaconda3\\lib\\email\\_header_value_parser.py',
   'PYMODULE'),
  ('email.header',
   'C:\\Users\\adhav\\anaconda3\\lib\\email\\header.py',
   'PYMODULE'),
  ('email.base64mime',
   'C:\\Users\\adhav\\anaconda3\\lib\\email\\base64mime.py',
   'PYMODULE'),
  ('email.charset',
   'C:\\Users\\adhav\\anaconda3\\lib\\email\\charset.py',
   'PYMODULE'),
  ('email.encoders',
   'C:\\Users\\adhav\\anaconda3\\lib\\email\\encoders.py',
   'PYMODULE'),
  ('email.errors',
   'C:\\Users\\adhav\\anaconda3\\lib\\email\\errors.py',
   'PYMODULE'),
  ('csv', 'C:\\Users\\adhav\\anaconda3\\lib\\csv.py', 'PYMODULE'),
  ('struct', 'C:\\Users\\adhav\\anaconda3\\lib\\struct.py', 'PYMODULE'),
  ('importlib.util',
   'C:\\Users\\adhav\\anaconda3\\lib\\importlib\\util.py',
   'PYMODULE'),
  ('tarfile', 'C:\\Users\\adhav\\anaconda3\\lib\\tarfile.py', 'PYMODULE'),
  ('gzip', 'C:\\Users\\adhav\\anaconda3\\lib\\gzip.py', 'PYMODULE'),
  ('_compression',
   'C:\\Users\\adhav\\anaconda3\\lib\\_compression.py',
   'PYMODULE'),
  ('lzma', 'C:\\Users\\adhav\\anaconda3\\lib\\lzma.py', 'PYMODULE'),
  ('bz2', 'C:\\Users\\adhav\\anaconda3\\lib\\bz2.py', 'PYMODULE'),
  ('fnmatch', 'C:\\Users\\adhav\\anaconda3\\lib\\fnmatch.py', 'PYMODULE'),
  ('copy', 'C:\\Users\\adhav\\anaconda3\\lib\\copy.py', 'PYMODULE'),
  ('gettext', 'C:\\Users\\adhav\\anaconda3\\lib\\gettext.py', 'PYMODULE'),
  ('ntpath', 'C:\\Users\\adhav\\anaconda3\\lib\\ntpath.py', 'PYMODULE'),
  ('genericpath',
   'C:\\Users\\adhav\\anaconda3\\lib\\genericpath.py',
   'PYMODULE'),
  ('posixpath', 'C:\\Users\\adhav\\anaconda3\\lib\\posixpath.py', 'PYMODULE'),
  ('stat', 'C:\\Users\\adhav\\anaconda3\\lib\\stat.py', 'PYMODULE'),
  ('stringprep', 'C:\\Users\\adhav\\anaconda3\\lib\\stringprep.py', 'PYMODULE'),
  ('tracemalloc',
   'C:\\Users\\adhav\\anaconda3\\lib\\tracemalloc.py',
   'PYMODULE'),
  ('token', 'C:\\Users\\adhav\\anaconda3\\lib\\token.py', 'PYMODULE'),
  ('_py_abc', 'C:\\Users\\adhav\\anaconda3\\lib\\_py_abc.py', 'PYMODULE'),
  ('Backup', 'D:\\device-records-management-main\\src\\Backup.py', 'PYMODULE'),
  ('Gui_Credentials',
   'D:\\device-records-management-main\\src\\Gui_Credentials.py',
   'PYMODULE'),
  ('insert_csv',
   'D:\\device-records-management-main\\src\\insert_csv.py',
   'PYMODULE'),
  ('Init', 'D:\\device-records-management-main\\src\\Init.py', 'PYMODULE'),
  ('datetime', 'C:\\Users\\adhav\\anaconda3\\lib\\datetime.py', 'PYMODULE'),
  ('sqlite3',
   'C:\\Users\\adhav\\anaconda3\\lib\\sqlite3\\__init__.py',
   'PYMODULE'),
  ('sqlite3.dump',
   'C:\\Users\\adhav\\anaconda3\\lib\\sqlite3\\dump.py',
   'PYMODULE'),
  ('sqlite3.dbapi2',
   'C:\\Users\\adhav\\anaconda3\\lib\\sqlite3\\dbapi2.py',
   'PYMODULE'),
  ('tkinter.messagebox',
   'C:\\Users\\adhav\\anaconda3\\lib\\tkinter\\messagebox.py',
   'PYMODULE'),
  ('tkinter.commondialog',
   'C:\\Users\\adhav\\anaconda3\\lib\\tkinter\\commondialog.py',
   'PYMODULE'),
  ('tkinter.filedialog',
   'C:\\Users\\adhav\\anaconda3\\lib\\tkinter\\filedialog.py',
   'PYMODULE'),
  ('tkinter.simpledialog',
   'C:\\Users\\adhav\\anaconda3\\lib\\tkinter\\simpledialog.py',
   'PYMODULE'),
  ('tkinter.dialog',
   'C:\\Users\\adhav\\anaconda3\\lib\\tkinter\\dialog.py',
   'PYMODULE'),
  ('tkinter.ttk',
   'C:\\Users\\adhav\\anaconda3\\lib\\tkinter\\ttk.py',
   'PYMODULE'),
  ('tkinter',
   'C:\\Users\\adhav\\anaconda3\\lib\\tkinter\\__init__.py',
   'PYMODULE'),
  ('tkinter.constants',
   'C:\\Users\\adhav\\anaconda3\\lib\\tkinter\\constants.py',
   'PYMODULE')])
